*** Life<FredkinCell> 4x14 ***

Generation = 0, Population = 24.
--0-0-0--0-000
0-0---0--0-0-0
-0--0-0-0--00-
--0---0--000--

Generation = 77, Population = 31.
--+-+--++++-++
--9++-+---+-+-
--++-++++++---
-+8--3++-+++-+

*** Life<FredkinCell> 6x14 ***

Generation = 0, Population = 14.
-----------0-0
----0--0--0---
----0000------
------------0-
------0--0----
----------0--0

Generation = 193, Population = 37.
++---+--+++-+-
++-+--+++---+-
+------+------
+-++++---++-++
--++--+--+----
+-+-+--+++++--

*** Life<FredkinCell> 1x175 ***

Generation = 0, Population = 85.
0000-00-0-0----0-000-0-----00---00--0---000-000-00-0000-00-0-0-0-00000-0-0-00--0-----------00--00-0-00---0-----0---0---00----0--00000--00-0-00--0-0---00-00000-00-000--0---0-0-

Generation = 179, Population = 96.
--+++++-+-+-+-+-+-+--+++-++-+-+++++--++++--+----++++--++-+--++-++++++-++-+++--+++-+++-+----+-+---+--+-+++++++-+-++---+-+------++-+---+++++++-+++--+--+-+++---+-+-+++----+-+--+-

*** Life<FredkinCell> 10x19 ***

Generation = 0, Population = 80.
00-0---0-0-0---00--
----0-000----------
---00-----000-000--
-0-0-0-0----0--0--0
---0--0--00000--00-
00-0----0---00--000
00-000----0-0---0-0
0--00-000--0-------
-0--0-0000-00-0--00
0-0--0-0---0---0-00

Generation = 86, Population = 104.
---+-+----+-+++++++
++-++-++-+++--++-++
+9----++--+-+-++++-
++++-+--++-+++-+-++
-++++++----+-+++---
++--+-++++--++++-++
+++-+----+++--+++--
+-+-----+---++-+-++
-+-++-+--+--+----++
+---+++-+---+--+-++

*** Life<FredkinCell> 7x24 ***

Generation = 0, Population = 97.
-0---00--0---0-----000-0
00-0--0-000-0-0-0000---0
-00-00-0-0--00--0-0-----
0-0-0-0-00--000000-00000
--00000000-000------000-
000000000000000-----0-0-
--00--0000-00-00-0000-00

Generation = 173, Population = 82.
-++---++++++++-+-++-----
-------+---+----+-+-+-++
-----+-+---++--++++--++-
+++-++++-++++-+--+-+-+--
--+--+---++-++-+-+-++-+-
+-++----+-+++----+--++-+
-+++-++--+-+++---+++-+++

*** Life<FredkinCell> 3x11 ***

Generation = 0, Population = 1.
-----------
-----------
-------0---

Generation = 11, Population = 6.
------0-0--
-----0---0-
----0-----0

*** Life<FredkinCell> 6x121 ***

Generation = 0, Population = 162.
--00-0--000--00--0----0--0-000-0-----0-00--0-0-0--00-0----------0--00-0--00--------------0----0----00--------------0----0
-0--------------0----0---00----00-----0-0-----------0--0----------0-0-----------0----0-------------0--0-0-00--0---0------
---0--------00---0-0----0---000-----0------------000--0-00-------------0------0---00----0------------------00-0----0-----
-----0-0---0--------0---0---0--0---0------0--------0------0--0-000000------0------------0------0-0------00------0----0---
-0--0--------00--000--00-0----00----------00--0000--000-0------0-0-------------0-0---0---------0--0-------0--------------
------------0---0--0-----00--0--0-----------0---------0---0----0-----00------0-0--0-----00--0--------0--------0---00-----

Generation = 90, Population = 365.
+++++++-+----+-+++---+++++-+--+++-+-++-+-+-+--++-----+------+++-+++++--+------+-++---+---+--+--+-+-------+--++---+---+++-
-+--+--++--++-+-++---+-----+---+-+++-+---++--++---++++++-+------++-++-+-+-++--+-+--+-+--++-----+-++--++-+-+--+++-+++--+-+
+--+-++-++++--++++--++-+++-+-+++-+-+--------+-++-+-+++-+-++++---+--+--+-+--++-++--++-++-+--++-+++-+++-++----+++-++--+--+-
+++-----+-++-+-----+++-++--+++--+++++---++---++-+-++++--+++-++-++---++---+----+----++++---+++-5+++-+----+-++----+++-+--+-
--+-++++-+-+++--+----+--++--+--++-+--+++-+---+---+-+-+--+-++-+++++----+--++-++++-++-+-++---++--+++--+-++++---+--+-++----+
++-++++-++--++-++-+-+--+--+--++--++-++-++-+-++--+-+++-+------++--++-+++--++++--+-++-++--+-+++++-+--+++-+++++--+-+++-++--+

*** Life<FredkinCell> 3x179 ***

Generation = 0, Population = 168.
------0-------00-00-0-0----0-0-0-0----0-0000-0-0----0-0-0-------0-------000-----0----0-0000-00--00-00----0-0-0---0-000----0-00-----0----0-----0---0000----0--0---0-0---00-0-----0--
----0-0---0----0----0--0-----0--00-----0-0---0----0----0----000------0---00-0----0---0---000-0---0-00----0-----00---0---0----00--00-0-----------0---0---0-000-----00--0-000--0-0-0-
---0---0-0-0-0---0-0--00-0----0------0-0--0--0---------0-0------00---000-000--00-----0-------0--0---0--------0--------00---00--------00-0-0---0--0--0-----0-00-0---000-0-----------

Generation = 169, Population = 291.
+++++--+-++-+-+-+++-++-+++-+-+--++++-+---++-+---+---+-+-+--+----+-++-+-+-+--++++-++----++--+++---++++--+--+---+----+++++-+-+++-+--+---++-+++++++-+---+-+++-+-+---+++++---++-+++++--
--+-+-+++++++--++++++-+----+-+++-+--+++++++-+-++++++++++-++-+---+++--+++++++-+-++-+-++-+-+-+++--+---+-++-++++---+-----+++--++----+-++-+-+-+--++++++---+++++-++---+---++-+-+--+-+++-
+--++----++-+-++--+--+-++-++-++++-++-+-++++--++-++----+-+-+-++-----++-+--+--+--+--++-++++--+++-+++---++-+------++----++-++--+--++-----+-+++---+--+++++-+-+--+++++--+----+++---+++++

*** Life<FredkinCell> 9x186 ***

Generation = 0, Population = 193.
---------0----0-------0--------------0--00---------0------------------------0-0--0-------0---------0---0----------00---------0------------0---------0--------0----------------0-----------
--00-------------0---0---0-----0-----0------0-------0---0-------------0---------0------0-------------0---------------------------------------------------000-----0-----0-------0--0----0--
-----0--------------0-------0---0-------0---0--0-----------0-----00----0------------------0-0---------------------0----0-------------------0-------------0-------0----------------------0-
--------0-0----------0-------0---0-------------------0---0-----------0---0---------0-------------------0--------0-------0----0-----------0-0----0--------0-------0----------0-0-0-00--0---
--0----------0----0------------------------------0------0----------------------------------0-0---0---------------------0---------------00-----0-----00--------------0---------------------
0--------------0-0--------------0-------0------0-------------------0------------0--------0--0----------------------0---------------0-----------------------------0-------000--0-----------
-0--0---0--------------0-0-----0--0-----0--------------0---0---------0---0----0-------------00---------------0-----------0---0----0----0----0-------0---------0----------------------0----
-----0-0---------------0------0-----------0---------------00----------------0-----00---0----0------------0------------0-00------------00------0----0-----------------0----------0---0-0---
-------00----0-------0--0-------------------0------------------00---0--0-------0----0----0---------0-----0------0---0--0-----------0---------0-----0-----0-----0---0------0--0---------0--

Generation = 62, Population = 846.
-++8-++--++++----+9++-9--+-+--++--+--+-++++----+-+---++++-++-+---+-+++8+-+-++-++--+---+-+-++-+++-+-+-+-+---+-++-+++++---+---+9-+++++8--+---++-+-++++--+++---6+++-+--+++-+---+-++4+----+--9
-+---+++-+++++9--+++----+---+8++--+------++++-+-+---+-+-+---+---++--+++++++7-9-+--++++++---+++-8-+8-+-+----+----+---+-+--+---7----+-9---9-++-----9----+----+----++--3+--8--+4-++8++----+--
+--+-+7----++--++++---7++-----+++++-+-+----+-+-9+++++8-----+++---+-+-+--+-----++-++-+-+-++5+++9++--9----++--+-+-+--+-+--+--++--+-++-----+-+-++++++--++---9-+---+-28++++---9--++-----+-+---
+-++++-------++78+++8-++---+++++6+--++-+--+++--++----------++--+--+-++8---+-+--+++++-++-++--+-+++-++--++++--++++--++--+------+-9+--++++-+++-+--++---+--+++---+++-----+----+++-+--+-+8+-+-+
+-+8--+--+-++-+-+-7-++-+++-+-9++-+++--8+-+-+--++++9++---8--+--9----++-----+-+++----++-++++++--+---+---8++-----++--+++++9---+-++--++---+++-+--++---+----++++-----+++-8--+++-++----+--+5-+6+
---+++-+-++------+7+--++--++---++-9--++-9-6+--+--++------8-++8+---++++----8-------+-++--7+--++-8-+--7--+9--+-+-7--+++-+--+-+---+-+-++--+-++-+++----+-49+-++-88-+---+------+-9+------8---8-
++++------+--++++++++--+--+++++++-++++++-+--+++-+-++---+-++++--+---++-+-+-++++-+8++--++8++--+-+++--+++++-++--++--+-++++-+------+-++--++-+7+++-+--9-++-+++9+9+-+---++---+---++-++--7-+++---
+9+-+++-++-++++9++9-++-+---++++---++6-9--+-+---9+------+++++-8--++----++6-9-----+---8+++++--9+-+------++----++-+7--+-+-+++-+-+--+-+++9++-++++-+-++-----++--+-----+-----++-----------++---+
+8-++++-----+-+-+-+++--+9++-+-9++++--+----9++8+9+--+--++-+-++--++-9+-+-++5+++++++++++9-------+-++---+--+------++-78+9++++-9---+-+-+9-+-+8-+--+++++--8-+-9++++-++-+++---7-+-+-++----8++6-+-

*** Life<FredkinCell> 5x57 ***

Generation = 0, Population = 113.
0----000--0----0-00-0-00--0-----0-0--00--0-00-----000----
--000-------00---0---0----0-----0000-00-0-00-0--0--0-0-0-
-0-0---000--------0---00-00-00-----------00-0-0000--0-00-
-0-00---0--0--00--0--00-000--0--0---0-0--0-0---000----00-
--0--00-0-----00--000--0---0000--00-0--0------0---000--0-

Generation = 90, Population = 126.
+-+-+-+++-+-++------++----++-+++--+-+-+++-----+-+-+++--+-
+---++-+--++---+-+--+-+----+--+------+++--++-++++--+-++-+
-++++-+-+++-+-------++---++------+++---+++-----+-++--++--
----+----++--++++---+-9--+-++++----+-+-+++--+---+++---+++
-++--+++--+------+---+++-+--++-++-+--++-++-----++---+---+

*** Life<FredkinCell> 1x7 ***

Generation = 0, Population = 2.
-----00

Generation = 27, Population = 0.
-------

*** Life<FredkinCell> 5x45 ***

Generation = 0, Population = 119.
-00--0-0-00-----0-00-00----00000-0---00000---
--00------0---00000--0-00-00-00-00000--000-0-
---0--0--00-00-0--00000-0-00-00--00--000-0--0
00-00-000-0--00-0-0---0-0-00000--0----0000---
0-0-0-0-00-0-0-0----00-000--0--00-0000000--0-

Generation = 72, Population = 122.
++++++-----+-+++--+++++--++9++-+++-++---+-++-
------++++-++++---+++++--+-++---+---+-9+--+--
-+--++---+-+-+---+-+++-+-+-+-++++-++-+---++7-
-+++--+9+-++++++-+++++++-+--+-+--+++-+--+-+++
---+-+---+-9+-----+-+++---++++----+++--+-++9-

*** Life<FredkinCell> 9x118 ***

Generation = 0, Population = 178.
---0----00--00--0-------------0-0------00--------------------------0----------0---0--0---00-0-------0-----------------
----------------0----0--------0---0----------------0---0-00----0---0-0-0----------0----0--------0----0-----------0--0-
---0-0-0--0--0---------0---0-----0-------------------0----0----------------0-0---------0------------0-0-------------0-
---0--0----0-------00------0-----0--------0---------------------------0--00-------0-0---0--00------0-------0---------0
-0--0-------0-0-----0--------0--------------------0-----------00-0-----0-------00-0---00-----0-0-----0--0-0--0-------0
0--------------------0-----0----00-----------0---0---0-----0----0--0----------0-0-0----0-----000---00---------0---00--
------------0-0-------00---0-----0----------------------0-------------0-----0-----0-00-0--0---0-0-------------0-------
0----0-0-0---------------0--0------0--------0-0-----------------0---0--000000--0-000----0--0-0-----0-0----0----0---0--
-0------0------000------------00-----0--------0-------0----------------0-----------0------------------0-0---0---------

Generation = 87, Population = 532.
+-+--+-+--++-+----+-++---+++-+--+++-++-++++-+-+--+--------++--+-+-+-+++-+++----+++-+-+-++++-++++--++++-+--+-+------+--
+-+++-----++--+++-+---++---+----+-+--+-+-++--+-++-+++---+++--+--+--+---++-++---+-8-++-+++-+--++--+--+++------+-----+-+
+++--+---+--+-+-+-----++----+-+++++--+-++++++-++---++++-+-++++-++++--+---++++-+--+---+---++---+-++++++--++-+--+-+-+-++
-++++-+++-+-+--+-++++-++----+-+++++---+--+++--++-++-+-+--+-++---+---+-+-------+---+-++-+---++--++++++-++++++---+++----
-----+-++-+++++--++-+---+++-+++++-++---+---++-++--+--+--+++--+---+++-+++-++---++-++--++-+---++++-++-+++-++++-++-+--+++
+--+++--+--++--+++-+-+----++++++---+---++---+-++--+-+++-----8-+--+-+-+---++----++--+-+-+-++-+---+-++-+++--+++----++-++
++--+-+++--+7++-+--8-+---+++-++-+--+-----+++--++--++--++---++--+--+-+---++++++-+++-+-+-----+--++-++-++-+-+-+-++---+--+
+-+--+++-+-+--+-+-+-+-+--+++-+++--++-++-++-+-++---+--+--+---+++++----+++-+++---++---+-++-------+-++--+++++++++++-++---
+++++---++------++---+-+-+--8++--++---+----++--+-+--+----+9++-+--+++++-+----++--+--+--+-++++-+-++-++--+-+---+-+-+++-+-

*** Life<FredkinCell> 6x39 ***

Generation = 0, Population = 54.
0--0----00--------00---------------0---
---0---0------0-0---0-00--0------0-----
0--0----0----0----0--0---------------00
--0-00------------0--0-------0-0----0-0
---00---0--0-----------0-0---0----00000
000--00-----0----0------0-------------0

Generation = 72, Population = 121.
-7+++--++--+++++--+--+--+++--+++--+--++
-+-+-++-++-+-++--+-+++-++--+--++----++-
---+-+-+-++-+-+++----+++++---+++--+++++
+----++-++---9+9-+-+-++++-+-----++--+--
-++-----+-+--+-+-++-+-+-++++-+--+++-+++
+--+------+--++-++-+---++++-+++-+-+---+

*** Life<FredkinCell> 10x94 ***

Generation = 0, Population = 178.
-0-----00----00-0------0-00---------00---0----00--0-0-------0------------00-----0---0---------
---------------0---0---0-----0--000-0--------0----0--00-------0--0------------00-------0-0--0-
-00------0------0--000-0----------0---0--------------000----0-------------------------0-0--00-
0---0-0---------0-----0-0--------00----------0--0-0-----0-----0--0-0--00-----0----0-----0--0--
-00-----------------0---------000-------------0-0-00------00---0---0--------------0------0----
0-----0----------------00--------------0-0------0------0--------0-----------------------0----0
0------------------00--0-------------------0--------0----0----0-0---0----0-0---------------0--
--0--00------------0---0-----------------0000--0-0-----0-0---------0----------0--00-----------
00-0-00-------0--0---0----0--------00-0-0----0------------0-00--0----------0----0-0---0--00--0
--0---0-0---------0-------0---00------------------0------00-0----00-----------0---0--0--0-----

Generation = 98, Population = 471.
-++++++-+++-+-+----+---+++++---+-++++----+++9+--+-+-++-+++-+--++-+-+-+++-+++-++----+--+--+++++
+-++-+--++++++---+--+---+--++-++-+++--+++-++-+-+++++++-+----++++----++-++--+-+-----++++---+-++
----+++--+--+-++----++-++-++-+-+-++-++---++-++---+++-++-++-+++--++---++-+----++-----+--+---+-+
++++++-+---++-+-+-+-++-++++++--+-+--++-+--+-++--++-+----++-+--+-++-+--+++-+--+-++-+++----+++-+
--+-+-++++++--+----+--++-++-+-++-+++++-------+++--++-+-+--+-+-+-+-----------+-+--+--++--++----
++-++-+--+---++-++----++++++++++++-----+--+-----+-+--+---+-+++-----++-+++++-+-+-+-+--++--++--+
----++-+-+++-+++-++++-----+--+-----+-++++---+-++--+---++++--+-++--+-+++-++++++-++++++---++-++-
+++++-+-+-++--++--++-+-+--+-+++++++--++--++-----++-++-++-+-++--+----+--+-+--++-+-+-++--+-++---
------+-++-+---+----++--+++--+----+++--++---+---+-++-+-++-++-+-+-+-----++-++++--+++----+----+-
++-----+-------+++-++-+-++--+-+-+--+-+-+-+++-+-+-+-++-+--++-+--+++++------++++-----+-+-+-+-++-

*** Life<FredkinCell> 6x87 ***

Generation = 0, Population = 40.
---------0--------0--------------------------0--0-0----0------------------------------0
---------------------------------------0----------------------------0------------------
-00---------0-------------------------------0----0----------------------0-------------0
---------0---------------------------------00------------------------------0----0----0-
---0-----0--0-00------------------------------0------------0--0----0--0--------0-------
-------------------0------0------0---------0-------0--------------------0----------0---

Generation = 73, Population = 257.
-+-+++++-++-------+--++---+----+++----+---+--+-+++-----+--+-++-+++---+++-9+-+++8-++-+-+
----+-++---++--+++6--99-+8+-6++++-+-++++++++---+--+-++---++++7----8----+-+--+--+-+-+---
+---9+++--+-+-+-+---8-+--8-+--+9+7--++--+++-++--+-+++---++-+---+-+-+--++---+-----+--+6-
-+8+--5-------++++-+9--+-++-++--+----9-++++++---+9-+--8+---++--+-++-++------++--+++--+9
++-++++-----+++--++--+++++++++-8--++79-+++---+++--+++---+---+-----+--7++++++---+-----++
++-++-+--++--+-+-+--+----++---+++-6+-+--+-----+--+-------+9+9-+++++++-+-+-6+---++++++--

*** Life<FredkinCell> 7x41 ***

Generation = 0, Population = 140.
-00--00--0-0-0---00-00000--00-000--00--0-
000-0---0----0--0--000--0000-0-0--0-00-00
-00--0-00----0-0-000---00-----00-00---00-
0-0-00-00000------0-0-00-00-0--0-0-000--0
-0----0-00000--0--0-------0--00000---0---
-00000--0-0--0-0-000000-----0---00--0---0
-----0-0-00-0--0-0---00--000-0000--000-00

Generation = 188, Population = 137.
++-++-----+-++--+-+-++++------+++-+-+----
++----+---+-++---+--++++--++---+--++++++-
+--+-+--+++++--++-+++--+-+-----+---++++++
+-++-+-+++-+-+++++-+++-+----+----+-++----
--++----+---+--+----+-+++---------+++-+-+
+++-----++-+-+-+++-+-+-+-+--++-++-+-+--+-
+++-++--++-++-+-------+++++-+++---+---+-+

*** Life<FredkinCell> 4x183 ***

Generation = 0, Population = 115.
-----------------0--------------0-----0--00---------0--------0-----------0----0-----0---0--00--------00---------------0-0---0----0------------------------0--0--0-----------------0-0--
-----0-0-----0---0-0---0------0----0-0-0----------0---0--0-------------------00-------0----------0----0--0------0-0-----------------0----00------0-0-----------0-0---------------0---0-
--------0--0-----0--------0-0-0----0-----------0------0------0--------------0000--0---------0----0-------0----0--------0---0----0-----0----------0-0-0--------0--0-----------------00-0
----0--0-0---------------000-----0-----0----0------------0--0-0------------------00-----0---00---0----0---0------0--------------00-0----0-0---------0-------------0-----------0------0-

Generation = 132, Population = 360.
-+++-+----+----++--+++--+++-+--------+---+++-++++---+-+--+-+--+-++----+---++-++++-++++++--+++--++++-+++-++--------++--+----+-+-+-++--+--+-+++-+-------+-----+-++-++++-+--++-----++---++
++--++++-+++++-++++-++++---+++---+-+++++---++++--++-+-+-+++--+--+---+------+++-++++-+---++++----+-+--+--++-+--+++-++----++-+-++++-++-+++--++--+++++++++--+--+---+-+-+-++-++++-+-++--++-
+++-+-----+-+--++--++--++-+--++-+---+-+-+--+---++++-----++++--++-+--+---++-+++-----+---++---+--+++--+-+--+--++---+-++--------+--++----++-+-++-++---------+++-++-++-----+-+++-++++-+-++-
+-+---+-+++----+-+--+++-+---+-++--------+---+-+-+-----+-++--+---+++--++---+-+--++-++++++-+++--++--+-+--+---+++-+--++++-+-+-+-+-+----++--++++--+++-++++-+++++-+++--++-++++-++++--++--+--

*** Life<FredkinCell> 1x133 ***

Generation = 0, Population = 69.
----000-00--000---00----00000--0000---0---0--000-0-0000-0--0000000--0----0----0-0-00-----00--0--00000-00-00000-000---000-0--0---0--00

Generation = 88, Population = 65.
++-++--+-+-+++-++------++-+--++-+--+---+----+--+++--+-+----+++-++-+-+++++++----+----+--+-+-++++++--+-++--+-------+---++++-++--++++++-

*** Life<FredkinCell> 2x173 ***

Generation = 0, Population = 149.
0000--0--00-0-0-00--000--0--00-0-0-000-0--0-0--------0-00---00-----00-00-----0--00--00-------0--0--0-0000000---0--0---000--0--00-0-00-0000000---0-0--0000-0--0-0--0--0-----00
---00-0----0---0-0---000-00-------0--0-----0--0--0--0--0000-00--0--00-00000-00---0----0----0-----00--000-0000---000-----------0-00-00--0000-0--0-0--0-00----0-0-0--0----0---0

Generation = 40, Population = 172.
++--8--9----+---+--+8+--7---+9--3-+-+9-579++-+-66----+-----9--+++7--9--+8++--++---8-7+----5--+7-99-----++--7--9--+89-7+9+--8--+-+7--+----99+9-+---4+----89+----+--8----96+-+5
-7+-+5-9+88-8-6+++7--8--6----+++-4++-++------8+---++8+88----+---++----6-+-++-+-98--+--++--++----+-+--5+-+-9+---9+---8+--97-+++++--9-8+-++-799++65-86--++68+43-9+-+------98+++

*** Life<FredkinCell> 7x118 ***

Generation = 0, Population = 181.
--------0----0000--00---000--------------------0-0-0------0---0---00----00----00--0---------0--0--0------0------------
---------0-0---0-------00-0----00---0--00-------00-------------0-00-----0--0---0--0------00----000-----0-00-----0-----
--0-0-0--00-00-------0----0-0---------------0----0-0--0-----0-0-----0------0--0-0---00---00----------------0---------0
--0--------0-0-0----0-0-------------0------0---0-------0---------0----0-0--0-0-0---0--------0-0--0---0-0--0---0------0
0-----0---------------0-0-------0---00-----000-----0-0-----0-----0--0--0---0------0---0-------------0--------0-0------
0----00----0--------0-0-00---0-0---0--000-------0----0-0-----------------0------0------0--0--00--------00-------------
-0-0-00--------0-----0-0-0-0--0---------0-0---0--0--------0------0----0---0----0----0-------0-0---0---0-----------0000

Generation = 41, Population = 406.
+9--8++9--+-----7-8-7--6+-+----+--967+64---8-8------98-+8--+-6----5--+--7+-8-------7667--+--+7-+-66-85-+8----7-+--698+
9-89-9-++---6+--+-+99-3+9---86-+-+-++--------------56-6+37+7-7+---5-+-----95--+-57-6-85+63--++--+--9-64+++-+986-99---6
-9+---59--7-+--89--78--89-++----+--4698---++8---65+++9---++-+-+-4--+---35+---+---768-8-+-7---96-7-7+64----9---5-----++
-+8+-49----+--++-+--4---5-++40-++---7-5-7---78--++52-+533-8-9--+--+--7399+++---+7++--+----+8-+---+-+-+--9---2-----3+9+
--5--++-+++------4------+66+----+6-577+-++-+-++++9-9----++-+-6-+8-7--+-8--++-99---+-6+8+-6++85++----+++---9+8--+---++5
---+++--+-9-+6+-+-+-+8--7-9--7-6+-++8-+++9+-7+7+-3-+-+9--+++-+---+-4-9-9--+-5-+-978-5+78--7+-98--97-------+--89+-+-+--
-7--695++--------+---8++---+-----+-8------5+--+6++8+8+9++5-8---+49+-8-4------+5--++8-4-+94+-35----5--+-+78-8++----+9--
