*** Life<ConwayCell> 17x7 ***

Generation = 0, Population = 30.
.*.*...
.......
.....*.
**.....
.*.*...
....**.
.....*.
.*...*.
....*..
.....*.
*.***..
*.*.*..
.*.....
....*.*
....*..
.***..*
.....*.

Generation = 6, Population = 30.
.......
.......
.**....
*.***..
*.****.
**...**
..*.**.
....*..
.......
.......
..*....
..*.*..
...*...
.......
.......
.*.****
.*.*...

Generation = 12, Population = 18.
.......
.......
.......
.......
.......
....**.
...***.
..***..
.......
.......
.......
.......
...**..
...***.
...***.
.....**
.......

Generation = 18, Population = 3.
.......
.......
.......
.......
.......
.......
.......
.......
.......
.......
.......
.......
.......
..***..
.......
.......
.......

Generation = 24, Population = 3.
.......
.......
.......
.......
.......
.......
.......
.......
.......
.......
.......
.......
.......
..***..
.......
.......
.......

Generation = 30, Population = 3.
.......
.......
.......
.......
.......
.......
.......
.......
.......
.......
.......
.......
.......
..***..
.......
.......
.......

Generation = 36, Population = 3.
.......
.......
.......
.......
.......
.......
.......
.......
.......
.......
.......
.......
.......
..***..
.......
.......
.......

*** Life<ConwayCell> 5x10 ***

Generation = 0, Population = 20.
.**..**...
...**...*.
**......*.
*...**.***
......****

Generation = 9, Population = 2.
..........
.....**...
..........
..........
..........

Generation = 18, Population = 0.
..........
..........
..........
..........
..........

Generation = 27, Population = 0.
..........
..........
..........
..........
..........

Generation = 36, Population = 0.
..........
..........
..........
..........
..........

Generation = 45, Population = 0.
..........
..........
..........
..........
..........

Generation = 54, Population = 0.
..........
..........
..........
..........
..........

Generation = 63, Population = 0.
..........
..........
..........
..........
..........

Generation = 72, Population = 0.
..........
..........
..........
..........
..........

Generation = 81, Population = 0.
..........
..........
..........
..........
..........

*** Life<ConwayCell> 15x10 ***

Generation = 0, Population = 24.
.*...*...*
.......*..
....*....*
.....**...
...*...*..
..*.....*.
..*...*...
..*..***..
.......*..
...*......
....*.....
..........
..........
*......*..
*.........

Generation = 4, Population = 18.
..........
..........
.....**...
......**..
........*.
........*.
..**.*....
..****.**.
...*.**...
..........
..........
..........
..........
..........
..........

Generation = 8, Population = 24.
..........
......*...
.....*.*..
....**..*.
....***.**
........**
.....**.**
..**....*.
.....*..*.
.....*.*..
..........
..........
..........
..........
..........

Generation = 12, Population = 16.
..........
..........
....**....
...**..**.
...*..*...
...*..*...
..........
...**.....
...**.*...
.....*....
..........
..........
..........
..........
..........

Generation = 16, Population = 17.
..........
...*......
..*..**...
..*....*..
.**.*.*...
.*........
.*..*.....
.....*....
..***.....
..........
..........
..........
..........
..........
..........

Generation = 20, Population = 25.
..........
..........
..........
..*.*.....
*.*.**....
...*.*....
**..***...
***.***...
.*****....
...*......
..........
..........
..........
..........
..........

Generation = 24, Population = 9.
..........
..........
..........
....**....
*...**....
*.*.......
.**.......
..........
..........
..........
..........
..........
..........
..........
..........

Generation = 28, Population = 5.
..........
..........
..........
..........
..........
.*........
.**.......
.**.......
..........
..........
..........
..........
..........
..........
..........

Generation = 32, Population = 0.
..........
..........
..........
..........
..........
..........
..........
..........
..........
..........
..........
..........
..........
..........
..........

Generation = 36, Population = 0.
..........
..........
..........
..........
..........
..........
..........
..........
..........
..........
..........
..........
..........
..........
..........

Generation = 40, Population = 0.
..........
..........
..........
..........
..........
..........
..........
..........
..........
..........
..........
..........
..........
..........
..........

Generation = 44, Population = 0.
..........
..........
..........
..........
..........
..........
..........
..........
..........
..........
..........
..........
..........
..........
..........

Generation = 48, Population = 0.
..........
..........
..........
..........
..........
..........
..........
..........
..........
..........
..........
..........
..........
..........
..........

Generation = 52, Population = 0.
..........
..........
..........
..........
..........
..........
..........
..........
..........
..........
..........
..........
..........
..........
..........

Generation = 56, Population = 0.
..........
..........
..........
..........
..........
..........
..........
..........
..........
..........
..........
..........
..........
..........
..........

Generation = 60, Population = 0.
..........
..........
..........
..........
..........
..........
..........
..........
..........
..........
..........
..........
..........
..........
..........

*** Life<ConwayCell> 19x8 ***

Generation = 0, Population = 31.
...*.*..
**......
*.*....*
.***.*..
......*.
..**.**.
..*.....
........
.*...*..
..*...*.
..*.....
........
........
....*.*.
........
.*....*.
.......*
...***..
.....*..

Generation = 12, Population = 28.
.**.....
****.*..
*..**.**
*..*..**
*.....**
*..***..
*...*...
**..*...
........
........
........
........
........
........
........
........
........
........
........

Generation = 24, Population = 12.
........
.....*..
.....**.
......*.
.*...*..
.*......
..*...*.
...***..
........
........
........
........
........
........
........
........
........
........
........

Generation = 36, Population = 4.
........
........
......**
......**
........
........
........
........
........
........
........
........
........
........
........
........
........
........
........

Generation = 48, Population = 4.
........
........
......**
......**
........
........
........
........
........
........
........
........
........
........
........
........
........
........
........

Generation = 60, Population = 4.
........
........
......**
......**
........
........
........
........
........
........
........
........
........
........
........
........
........
........
........

Generation = 72, Population = 4.
........
........
......**
......**
........
........
........
........
........
........
........
........
........
........
........
........
........
........
........

Generation = 84, Population = 4.
........
........
......**
......**
........
........
........
........
........
........
........
........
........
........
........
........
........
........
........

*** Life<ConwayCell> 18x17 ***

Generation = 0, Population = 46.
.......*.........
...............*.
....*..**........
.*.......*.......
.*......*........
*..*........*.*..
.................
...*..*.........*
.*......*.*......
..*..............
........*.*..*..*
....*............
.*.**..*.*.......
..*......*.......
..*....**.......*
............****.
.*.*....*..*..*..
.........*.......

Generation = 3, Population = 25.
.................
........*........
.......*.*.......
.................
***..............
.................
.................
.................
.................
.................
.................
...*....*........
.*.....*.*.......
*..*.............
.**....*.*...*.*.
........*..***.**
.................
.................

Generation = 6, Population = 13.
.................
.................
.................
.*...............
.*...............
.*...............
.................
.................
.................
.................
.................
.................
.................
.................
............**.**
...........*...**
............***..
.................

Generation = 9, Population = 14.
.................
.................
.................
.................
***..............
.................
.................
.................
.................
.................
.................
.................
.................
...............**
...............**
............**..*
...........*..**.
............*....

Generation = 12, Population = 13.
.................
.................
.................
.*...............
.*...............
.*...............
.................
.................
.................
.................
.................
.................
.................
..............**.
............****.
.................
............*.*..
.............**..

Generation = 15, Population = 10.
.................
.................
.................
.................
***..............
.................
.................
.................
.................
.................
.................
.................
.................
...............*.
...............**
.................
...............*.
.............***.

Generation = 18, Population = 7.
.................
.................
.................
.*...............
.*...............
.*...............
.................
.................
.................
.................
.................
.................
.................
...............*.
..............*..
.................
..............**.
.................

Generation = 21, Population = 3.
.................
.................
.................
.................
***..............
.................
.................
.................
.................
.................
.................
.................
.................
.................
.................
.................
.................
.................

Generation = 24, Population = 3.
.................
.................
.................
.*...............
.*...............
.*...............
.................
.................
.................
.................
.................
.................
.................
.................
.................
.................
.................
.................

Generation = 27, Population = 3.
.................
.................
.................
.................
***..............
.................
.................
.................
.................
.................
.................
.................
.................
.................
.................
.................
.................
.................

Generation = 30, Population = 3.
.................
.................
.................
.*...............
.*...............
.*...............
.................
.................
.................
.................
.................
.................
.................
.................
.................
.................
.................
.................

Generation = 33, Population = 3.
.................
.................
.................
.................
***..............
.................
.................
.................
.................
.................
.................
.................
.................
.................
.................
.................
.................
.................

Generation = 36, Population = 3.
.................
.................
.................
.*...............
.*...............
.*...............
.................
.................
.................
.................
.................
.................
.................
.................
.................
.................
.................
.................

Generation = 39, Population = 3.
.................
.................
.................
.................
***..............
.................
.................
.................
.................
.................
.................
.................
.................
.................
.................
.................
.................
.................

Generation = 42, Population = 3.
.................
.................
.................
.*...............
.*...............
.*...............
.................
.................
.................
.................
.................
.................
.................
.................
.................
.................
.................
.................

Generation = 45, Population = 3.
.................
.................
.................
.................
***..............
.................
.................
.................
.................
.................
.................
.................
.................
.................
.................
.................
.................
.................

Generation = 48, Population = 3.
.................
.................
.................
.*...............
.*...............
.*...............
.................
.................
.................
.................
.................
.................
.................
.................
.................
.................
.................
.................

Generation = 51, Population = 3.
.................
.................
.................
.................
***..............
.................
.................
.................
.................
.................
.................
.................
.................
.................
.................
.................
.................
.................

Generation = 54, Population = 3.
.................
.................
.................
.*...............
.*...............
.*...............
.................
.................
.................
.................
.................
.................
.................
.................
.................
.................
.................
.................

Generation = 57, Population = 3.
.................
.................
.................
.................
***..............
.................
.................
.................
.................
.................
.................
.................
.................
.................
.................
.................
.................
.................

Generation = 60, Population = 3.
.................
.................
.................
.*...............
.*...............
.*...............
.................
.................
.................
.................
.................
.................
.................
.................
.................
.................
.................
.................

Generation = 63, Population = 3.
.................
.................
.................
.................
***..............
.................
.................
.................
.................
.................
.................
.................
.................
.................
.................
.................
.................
.................

Generation = 66, Population = 3.
.................
.................
.................
.*...............
.*...............
.*...............
.................
.................
.................
.................
.................
.................
.................
.................
.................
.................
.................
.................

Generation = 69, Population = 3.
.................
.................
.................
.................
***..............
.................
.................
.................
.................
.................
.................
.................
.................
.................
.................
.................
.................
.................

Generation = 72, Population = 3.
.................
.................
.................
.*...............
.*...............
.*...............
.................
.................
.................
.................
.................
.................
.................
.................
.................
.................
.................
.................

Generation = 75, Population = 3.
.................
.................
.................
.................
***..............
.................
.................
.................
.................
.................
.................
.................
.................
.................
.................
.................
.................
.................

*** Life<ConwayCell> 6x9 ***

Generation = 0, Population = 27.
*.*****..
**.***..*
..***..**
*..**...*
**.......
.*.**..*.

Generation = 10, Population = 0.
.........
.........
.........
.........
.........
.........

Generation = 20, Population = 0.
.........
.........
.........
.........
.........
.........

Generation = 30, Population = 0.
.........
.........
.........
.........
.........
.........

Generation = 40, Population = 0.
.........
.........
.........
.........
.........
.........

Generation = 50, Population = 0.
.........
.........
.........
.........
.........
.........

Generation = 60, Population = 0.
.........
.........
.........
.........
.........
.........

Generation = 70, Population = 0.
.........
.........
.........
.........
.........
.........

Generation = 80, Population = 0.
.........
.........
.........
.........
.........
.........

Generation = 90, Population = 0.
.........
.........
.........
.........
.........
.........

*** Life<ConwayCell> 7x15 ***

Generation = 0, Population = 29.
..*..........*.
...***..***....
...***...*.....
.*......*****.*
...*....*......
.*....**.**....
...*..*.*......

Generation = 13, Population = 9.
........*......
.......*.*.....
........*......
........*......
**.............
**.............
...............

Generation = 26, Population = 10.
........*......
.......*.*.....
.......*.*.....
........*......
**.............
**.............
...............

Generation = 39, Population = 10.
........*......
.......*.*.....
.......*.*.....
........*......
**.............
**.............
...............

Generation = 52, Population = 10.
........*......
.......*.*.....
.......*.*.....
........*......
**.............
**.............
...............

*** Life<ConwayCell> 5x14 ***

Generation = 0, Population = 22.
*....*.....*.*
.....**......*
.**...*..*....
....**.***.*..
..***.*.....*.

Generation = 5, Population = 16.
....*.........
...*..*...**..
...*.*.***..*.
....***...**..
..............

Generation = 10, Population = 16.
....**........
....**.....**.
....**.*...***
.....*.....**.
.....*........

Generation = 15, Population = 6.
..............
...........**.
..........*..*
...........**.
..............

Generation = 20, Population = 6.
..............
...........**.
..........*..*
...........**.
..............

Generation = 25, Population = 6.
..............
...........**.
..........*..*
...........**.
..............

Generation = 30, Population = 6.
..............
...........**.
..........*..*
...........**.
..............

Generation = 35, Population = 6.
..............
...........**.
..........*..*
...........**.
..............

Generation = 40, Population = 6.
..............
...........**.
..........*..*
...........**.
..............

Generation = 45, Population = 6.
..............
...........**.
..........*..*
...........**.
..............

Generation = 50, Population = 6.
..............
...........**.
..........*..*
...........**.
..............

Generation = 55, Population = 6.
..............
...........**.
..........*..*
...........**.
..............

Generation = 60, Population = 6.
..............
...........**.
..........*..*
...........**.
..............

Generation = 65, Population = 6.
..............
...........**.
..........*..*
...........**.
..............

*** Life<ConwayCell> 7x8 ***

Generation = 0, Population = 29.
**.*..*.
*...*.*.
.***.***
..*.....
.*.*.**.
***..***
..***.**

Generation = 3, Population = 27.
**......
*..****.
********
.*.....*
.**...**
..*****.
..*.....

Generation = 6, Population = 0.
........
........
........
........
........
........
........

Generation = 9, Population = 0.
........
........
........
........
........
........
........

Generation = 12, Population = 0.
........
........
........
........
........
........
........

Generation = 15, Population = 0.
........
........
........
........
........
........
........

Generation = 18, Population = 0.
........
........
........
........
........
........
........

Generation = 21, Population = 0.
........
........
........
........
........
........
........

Generation = 24, Population = 0.
........
........
........
........
........
........
........

Generation = 27, Population = 0.
........
........
........
........
........
........
........

Generation = 30, Population = 0.
........
........
........
........
........
........
........

Generation = 33, Population = 0.
........
........
........
........
........
........
........

Generation = 36, Population = 0.
........
........
........
........
........
........
........

Generation = 39, Population = 0.
........
........
........
........
........
........
........

Generation = 42, Population = 0.
........
........
........
........
........
........
........

Generation = 45, Population = 0.
........
........
........
........
........
........
........

Generation = 48, Population = 0.
........
........
........
........
........
........
........

*** Life<ConwayCell> 3x9 ***

Generation = 0, Population = 19.
.*.***.*.
.*****.**
***.***.*

Generation = 9, Population = 5.
.......**
......*.*
.......*.

Generation = 18, Population = 5.
.......**
......*.*
.......*.

Generation = 27, Population = 5.
.......**
......*.*
.......*.

Generation = 36, Population = 5.
.......**
......*.*
.......*.

Generation = 45, Population = 5.
.......**
......*.*
.......*.

*** Life<ConwayCell> 9x16 ***

Generation = 0, Population = 29.
.**....*.*.*....
.....*..**.*.*..
***..*..........
............*...
........*......*
....**.*..*.*...
..........*.....
...**........*..
...........*.**.

Generation = 10, Population = 16.
................
............*...
...........***..
..........*..*..
.........**.*...
..........*.....
................
...........***..
...........***..

Generation = 20, Population = 4.
............**..
............**..
................
................
................
................
................
................
................

Generation = 30, Population = 4.
............**..
............**..
................
................
................
................
................
................
................

*** Life<ConwayCell> 10x5 ***

Generation = 0, Population = 33.
*.***
***..
..**.
*.*.*
****.
.**.*
*.***
*.***
.***.
**..*

Generation = 3, Population = 6.
..*..
*....
..*..
***..
.....
.....
.....
.....
.....
.....

Generation = 6, Population = 8.
.....
.*...
*.*..
*.**.
.**..
.....
.....
.....
.....
.....

Generation = 9, Population = 14.
.....
.***.
*.**.
*...*
.***.
.***.
.....
.....
.....
.....

Generation = 12, Population = 10.
.***.
*...*
.....
.....
.....
*...*
.***.
.....
.....
.....

Generation = 15, Population = 9.
.....
.*.*.
..*..
.....
..*..
..*..
.*.*.
..*..
..*..
.....

Generation = 18, Population = 12.
.....
.....
.....
.....
..*..
.***.
**.**
.***.
..*..
.....

Generation = 21, Population = 12.
.....
.....
.....
.***.
.....
*...*
*...*
*...*
.....
.***.

Generation = 24, Population = 14.
.....
.....
.....
..*..
.***.
.***.
.....
.***.
*...*
.*.*.

Generation = 27, Population = 11.
.....
.....
.....
.***.
..*..
.....
.*.*.
*...*
.*.*.
..*..

Generation = 30, Population = 13.
.....
..*..
..*..
..*..
..*..
.*.*.
.....
*...*
*...*
.***.

Generation = 33, Population = 15.
.....
..*..
.***.
.....
.***.
..*..
..*..
.....
.***.
.***.

Generation = 36, Population = 4.
..*..
.*.*.
.....
..*..
.....
.....
.....
.....
.....
.....

Generation = 39, Population = 3.
..*..
..*..
..*..
.....
.....
.....
.....
.....
.....
.....

Generation = 42, Population = 3.
.....
.***.
.....
.....
.....
.....
.....
.....
.....
.....

Generation = 45, Population = 3.
..*..
..*..
..*..
.....
.....
.....
.....
.....
.....
.....

Generation = 48, Population = 3.
.....
.***.
.....
.....
.....
.....
.....
.....
.....
.....

Generation = 51, Population = 3.
..*..
..*..
..*..
.....
.....
.....
.....
.....
.....
.....

Generation = 54, Population = 3.
.....
.***.
.....
.....
.....
.....
.....
.....
.....
.....

Generation = 57, Population = 3.
..*..
..*..
..*..
.....
.....
.....
.....
.....
.....
.....

Generation = 60, Population = 3.
.....
.***.
.....
.....
.....
.....
.....
.....
.....
.....

*** Life<ConwayCell> 8x7 ***

Generation = 0, Population = 33.
*.*.***
...****
*.**.**
.***...
***.*..
*...***
***.*.*
*...**.

Generation = 6, Population = 4.
.......
.......
.......
.......
.......
.......
....**.
....**.

Generation = 12, Population = 4.
.......
.......
.......
.......
.......
.......
....**.
....**.

Generation = 18, Population = 4.
.......
.......
.......
.......
.......
.......
....**.
....**.

*** Life<ConwayCell> 4x12 ***

Generation = 0, Population = 32.
.*..****.**.
*.***.**.***
..******.**.
.*.*.***.***

Generation = 11, Population = 3.
............
.........***
............
............

Generation = 22, Population = 3.
..........*.
..........*.
..........*.
............

Generation = 33, Population = 3.
............
.........***
............
............

Generation = 44, Population = 3.
..........*.
..........*.
..........*.
............

Generation = 55, Population = 3.
............
.........***
............
............

*** Life<ConwayCell> 12x1 ***

Generation = 0, Population = 11.
*
*
.
*
*
*
*
*
*
*
*
*

Generation = 7, Population = 0.
.
.
.
.
.
.
.
.
.
.
.
.

*** Life<ConwayCell> 20x18 ***

Generation = 0, Population = 16.
..................
*.................
....*.............
..................
........*.*..*....
.**...............
..................
...*..............
....*..*..........
*.................
..................
..................
..................
..................
...........*......
..............*...
..................
..................
..*...............
......*.....*.....

*** Life<ConwayCell> 8x14 ***

Generation = 0, Population = 18.
...*.*.....*..
..*....*...*..
..*.*.**......
*...*.*.....*.
..............
..............
..............
..*...**.*....

Generation = 12, Population = 0.
..............
..............
..............
..............
..............
..............
..............
..............

*** Life<ConwayCell> 7x12 ***

Generation = 0, Population = 25.
......*...*.
...*....**..
*.....**.*.*
.....*..*.*.
*..*..*..*..
*...*.....**
.*...**.*...

Generation = 11, Population = 14.
............
........*...
......*.**..
......*.....
.....*..*.**
....*...**..
....*.*.....

*** Life<ConwayCell> 4x6 ***

Generation = 0, Population = 21.
***.**
******
.*****
***.**

Generation = 3, Population = 0.
......
......
......
......

*** Life<ConwayCell> 8x3 ***

Generation = 0, Population = 16.
*.*
**.
***
***
*.*
***
...
.*.

Generation = 12, Population = 0.
...
...
...
...
...
...
...
...

Generation = 24, Population = 0.
...
...
...
...
...
...
...
...

Generation = 36, Population = 0.
...
...
...
...
...
...
...
...

Generation = 48, Population = 0.
...
...
...
...
...
...
...
...

*** Life<ConwayCell> 8x15 ***

Generation = 0, Population = 21.
......*..*....*
...*....**.....
.*.............
........*.*....
...**....**..*.
..**......*..*.
*..........*...
*..............

Generation = 9, Population = 21.
...............
...............
..........*....
...*.....**....
..*.*...**.....
.*..*..***.....
..**....*..**..
.........***...

Generation = 18, Population = 25.
...............
.........**....
..*......*.*...
..*......*.*...
.*.*.....***...
.**.....**.*...
.**....*...*...
........***....

Generation = 27, Population = 19.
..**...........
..***..........
.....*.....**..
...........*...
..........*.*..
.........****..
...*.....*.*...
...*...........

Generation = 36, Population = 15.
...............
...............
...............
.......***.....
.......*..*.***
........*.**..*
...............
...........***.

Generation = 45, Population = 16.
...............
.......**......
.......***...**
.....*..**...**
......*..**....
......*........
...............
...............

*** Life<ConwayCell> 6x6 ***

Generation = 0, Population = 21.
..**..
*.*.*.
**.***
...**.
****.*
**.*.*

Generation = 7, Population = 0.
......
......
......
......
......
......

Generation = 14, Population = 0.
......
......
......
......
......
......

Generation = 21, Population = 0.
......
......
......
......
......
......

Generation = 28, Population = 0.
......
......
......
......
......
......

Generation = 35, Population = 0.
......
......
......
......
......
......

Generation = 42, Population = 0.
......
......
......
......
......
......

Generation = 49, Population = 0.
......
......
......
......
......
......

Generation = 56, Population = 0.
......
......
......
......
......
......

Generation = 63, Population = 0.
......
......
......
......
......
......

Generation = 70, Population = 0.
......
......
......
......
......
......

Generation = 77, Population = 0.
......
......
......
......
......
......

Generation = 84, Population = 0.
......
......
......
......
......
......

Generation = 91, Population = 0.
......
......
......
......
......
......

*** Life<ConwayCell> 4x14 ***

Generation = 0, Population = 20.
..*.*....*....
...**.**...***
*....*.*....**
*..*..**.*....

Generation = 7, Population = 8.
..**..........
..*.*.........
...*.***......
..............

Generation = 14, Population = 11.
..*****.......
..*....*......
.....*.*......
.....**.......

Generation = 21, Population = 11.
..*****.......
..*....*......
.....*.*......
.....**.......

Generation = 28, Population = 11.
..*****.......
..*....*......
.....*.*......
.....**.......

Generation = 35, Population = 11.
..*****.......
..*....*......
.....*.*......
.....**.......

Generation = 42, Population = 11.
..*****.......
..*....*......
.....*.*......
.....**.......

*** Life<ConwayCell> 14x19 ***

Generation = 0, Population = 46.
*...........**....*
...*..*.*..**.*....
.*.*.*.*....**....*
........**...***...
........*....*...*.
.......*..*........
...................
................*..
..........*..**...*
*..*.............**
*........*.........
....*.*..*.......**
...................
.**..........*.....

Generation = 10, Population = 19.
......**.....**....
.....*..*.....*....
.......**..*..*....
......*....*.*.....
............*......
...................
...................
...................
.................**
.................**
...................
...................
...................
...................

Generation = 20, Population = 14.
...................
...................
...................
..........**.......
.......**.**.......
.......**.**.......
...................
...................
.................**
.................**
...................
...................
...................
...................

Generation = 30, Population = 24.
...................
.........*.........
........**.........
.......**..........
......***..........
......*****........
......**..*........
.......***.........
........*........**
.................**
...................
...................
...................
...................

Generation = 40, Population = 28.
...................
........**.........
........**.........
...................
.........*.........
........***........
...........*.......
........*..**......
.....*..*...*....**
.....**..........**
........*.*........
.......**.*........
........**.........
...................

Generation = 50, Population = 19.
.........*.........
.........**........
........*..*.......
.........*.*.......
..........***......
...........***.....
...................
...........**......
.................**
.................**
...................
...................
...................
...................

Generation = 60, Population = 7.
...................
...................
...................
...................
...................
............***....
...................
...................
.................**
.................**
...................
...................
...................
...................

Generation = 70, Population = 7.
...................
...................
...................
...................
...................
............***....
...................
...................
.................**
.................**
...................
...................
...................
...................

Generation = 80, Population = 7.
...................
...................
...................
...................
...................
............***....
...................
...................
.................**
.................**
...................
...................
...................
...................

Generation = 90, Population = 7.
...................
...................
...................
...................
...................
............***....
...................
...................
.................**
.................**
...................
...................
...................
...................

*** Life<ConwayCell> 19x7 ***

Generation = 0, Population = 16.
.*..*..
*.*....
.......
.......
.......
..**.*.
...*...
...*..*
.......
..*.*..
.......
.......
...*...
.......
..*.*..
..*....
.......
.......
.......

*** Life<ConwayCell> 19x1 ***

Generation = 0, Population = 17.
*
*
.
*
*
*
*
*
*
*
.
*
*
*
*
*
*
*
*

Generation = 14, Population = 0.
.
.
.
.
.
.
.
.
.
.
.
.
.
.
.
.
.
.
.

Generation = 28, Population = 0.
.
.
.
.
.
.
.
.
.
.
.
.
.
.
.
.
.
.
.

Generation = 42, Population = 0.
.
.
.
.
.
.
.
.
.
.
.
.
.
.
.
.
.
.
.

Generation = 56, Population = 0.
.
.
.
.
.
.
.
.
.
.
.
.
.
.
.
.
.
.
.

*** Life<ConwayCell> 13x10 ***

Generation = 0, Population = 16.
.......*..
.....*....
..**......
..........
........*.
.*........
..*.......
..........
.*........
...*.....*
.....*...*
..*.....*.
......*.*.

Generation = 4, Population = 2.
..........
..........
..........
..........
..........
..........
..........
..........
..........
..........
..........
.......*..
.......*..

Generation = 8, Population = 0.
..........
..........
..........
..........
..........
..........
..........
..........
..........
..........
..........
..........
..........

Generation = 12, Population = 0.
..........
..........
..........
..........
..........
..........
..........
..........
..........
..........
..........
..........
..........

Generation = 16, Population = 0.
..........
..........
..........
..........
..........
..........
..........
..........
..........
..........
..........
..........
..........

Generation = 20, Population = 0.
..........
..........
..........
..........
..........
..........
..........
..........
..........
..........
..........
..........
..........

Generation = 24, Population = 0.
..........
..........
..........
..........
..........
..........
..........
..........
..........
..........
..........
..........
..........

Generation = 28, Population = 0.
..........
..........
..........
..........
..........
..........
..........
..........
..........
..........
..........
..........
..........

*** Life<ConwayCell> 19x19 ***

Generation = 0, Population = 47.
*......*....*..*...
.....*.........**..
....*..............
..........*........
*........*.*......*
.*...........*....*
.......*.**...*.*..
.....*.............
.........**........
............*.....*
..*.........**.....
.....*......**.....
...................
............*..*...
..*.........*......
.............**....
.....**......*.....
......*.......*.**.
.............*...*.

Generation = 6, Population = 30.
...............**..
...............**..
...................
...................
.........*.........
.........*.........
...................
...................
...................
...................
...........**......
..........***......
..........*........
..........*..*.....
...........*...**..
...........*.....*.
.....**...........*
.....**.....*.....*
..............**.**

Generation = 12, Population = 21.
...............**..
...............**..
...................
...................
...................
...................
...................
...................
...................
...................
............*......
...........**......
..........*........
.........***....*..
..........**...*...
...........*...*...
.....**............
.....**............
...................

Generation = 18, Population = 10.
...............**..
...............**..
...................
...................
...................
...................
...................
...................
...................
...................
...................
.............*.....
............*......
...................
...................
...................
.....**............
.....**............
...................

Generation = 24, Population = 8.
...............**..
...............**..
...................
...................
...................
...................
...................
...................
...................
...................
...................
...................
...................
...................
...................
...................
.....**............
.....**............
...................

*** Life<ConwayCell> 12x18 ***

Generation = 0, Population = 28.
..................
............*.**..
.*.*..*.....*.....
...**.............
..................
..*.....*..*...*..
....*.....*.......
.**..*............
............*.*.**
....*.............
......*........*.*
.............*.*..

Generation = 4, Population = 15.
..................
..................
..***.............
..*.*.............
..*.**............
....*.............
...*..............
..................
................*.
...............*.*
...............*.*
..................

Generation = 8, Population = 9.
..................
..................
.**...............
.**..*............
..*.***...........
..................
..................
..................
..................
..................
..................
..................

Generation = 12, Population = 7.
..................
..................
..................
...***............
..*..*............
..*...............
...*..............
..................
..................
..................
..................
..................

Generation = 16, Population = 13.
..................
....*.............
..**.**...........
..**.**...........
.*..*.............
..**..............
..................
..................
..................
..................
..................
..................

Generation = 20, Population = 19.
...**.............
..****............
.**...............
***..**...........
.**..**...........
..*.*.............
..................
..................
..................
..................
..................
..................

Generation = 24, Population = 19.
..................
.*...*............
.*.....*..........
.....***..........
.****..*..........
*...***...........
.*..**............
..................
..................
..................
..................
..................

Generation = 28, Population = 18.
..................
..................
........*.........
**...**.*.........
.....*..*.........
**.*.*............
.******...........
..................
..................
..................
..................
..................

Generation = 32, Population = 28.
..................
......***.........
.....****.........
..****...*........
.*...*.**.........
*.....***.........
*...*.............
.*...*............
...***............
....*.............
..................
..................

Generation = 36, Population = 31.
..................
..**....**........
..***...*.*.......
..*......***......
.*........*.......
..*......*........
.***.*............
.*..***...........
..*...............
..*...*...........
...***............
..................

Generation = 40, Population = 29.
..................
.........*........
.*........**......
*.........**......
**.**.....**......
..................
*...**............
.....***..........
*.*...**..........
.....**...........
....**............
....**............

Generation = 44, Population = 27.
..................
..........*.......
.........*.*......
.........*..*.....
....**....**......
**.****...........
*......*..........
.******...........
..****............
..................
..................
..................

Generation = 48, Population = 23.
..................
..........*.......
.........*.*......
.........*..*.....
.***......**......
..**..**..........
..*.**..*.........
..*..*.*..........
.*....*...........
..................
..................
..................

Generation = 52, Population = 29.
..................
..........*.......
.........*.*......
..*...*.**..*.....
.**.**.**.**......
....**..*.........
**......*.........
**.....*..........
.......*..........
..*...*...........
....*.............
..................

Generation = 56, Population = 27.
..................
...*......*.......
.*..*...*..**.....
*......*...*......
**....*....*......
...**.*...........
..........*.......
.*.***...*........
.*.***............
..................
..................
..................

Generation = 60, Population = 18.
...........**.....
..........*..*....
..........*..*....
.*.........**.....
..*...*...........
.*..**............
..................
.*................
..*.*.............
...*..............
..................
..................

Generation = 64, Population = 12.
...........**.....
..........*..*....
..........*..*....
...........**.....
..................
..................
..................
..................
..**..............
..**..............
..................
..................

Generation = 68, Population = 12.
...........**.....
..........*..*....
..........*..*....
...........**.....
..................
..................
..................
..................
..**..............
..**..............
..................
..................

Generation = 72, Population = 12.
...........**.....
..........*..*....
..........*..*....
...........**.....
..................
..................
..................
..................
..**..............
..**..............
..................
..................

Generation = 76, Population = 12.
...........**.....
..........*..*....
..........*..*....
...........**.....
..................
..................
..................
..................
..**..............
..**..............
..................
..................

Generation = 80, Population = 12.
...........**.....
..........*..*....
..........*..*....
...........**.....
..................
..................
..................
..................
..**..............
..**..............
..................
..................

Generation = 84, Population = 12.
...........**.....
..........*..*....
..........*..*....
...........**.....
..................
..................
..................
..................
..**..............
..**..............
..................
..................

Generation = 88, Population = 12.
...........**.....
..........*..*....
..........*..*....
...........**.....
..................
..................
..................
..................
..**..............
..**..............
..................
..................

*** Life<ConwayCell> 3x12 ***

Generation = 0, Population = 27.
******..***.
.***.**.*..*
***********.

Generation = 5, Population = 7.
......*.***.
......*.*.*.
............

Generation = 10, Population = 0.
............
............
............

Generation = 15, Population = 0.
............
............
............

Generation = 20, Population = 0.
............
............
............

Generation = 25, Population = 0.
............
............
............

Generation = 30, Population = 0.
............
............
............

Generation = 35, Population = 0.
............
............
............

Generation = 40, Population = 0.
............
............
............

Generation = 45, Population = 0.
............
............
............

Generation = 50, Population = 0.
............
............
............

Generation = 55, Population = 0.
............
............
............

Generation = 60, Population = 0.
............
............
............

Generation = 65, Population = 0.
............
............
............

Generation = 70, Population = 0.
............
............
............

Generation = 75, Population = 0.
............
............
............
